[
  {
    "ID":10001,
    "Name": "可可豆",
    "ItemType": 2,
    "Source": "兑换",
    "Price": 10,
    "Des": "基因",
    "ImgID": -1,
    "Duration": -1,
    "EffNumber": -1,
    "GeneType": 0,
    "GeneSizeType": 0,
    "Level": 1,
    "StrGeneNum": "等阶1",
    "GeneNum": 50,
    "IsADC": true,
    "IsAddCalculate": false,
    "AttackFactor": 1.2,
    "HPFactor": -1
  },
  {
    "ID":10002,
    "Name": "响尾蛇",
    "ItemType": 2,
    "Source": "兑换",
    "Price": 5,
    "Des": "基因",
    "ImgID": -1,
    "Duration": -1,
    "EffNumber": -1,
    "GeneType": 1,
    "GeneSizeType": 0,
    "Level": 1,
    "StrGeneNum": "等阶1",
    "GeneNum": 30,
    "IsADC": true,
    "IsAddCalculate": true,
    "AttackFactor": 0.2,
    "HPFactor": -1
  },
  {
    "ID":10003,
    "Name": "熊",
    "ItemType": 2,
    "Source": "兑换",
    "Price": 5,
    "Des": "基因",
    "ImgID": -1,
    "Duration": -1,
    "EffNumber": -1,
    "GeneType": 2,
    "GeneSizeType": 0,
    "Level": 1,
    "StrGeneNum": "等阶1",
    "GeneNum": 30,
    "IsADC": false,
    "IsAddCalculate": true,
    "AttackFactor": -1,
    "HPFactor": -1
  },
  {
    "ID":10004,
    "Name": "豹",
    "ItemType": 2,
    "Source": "兑换",
    "Price": 10,
    "Des": "基因",
    "ImgID": -1,
    "Duration": -1,
    "EffNumber": -1,
    "GeneType": 3,
    "GeneSizeType": 0,
    "Level": 1,
    "StrGeneNum": "等阶1",
    "GeneNum": 30,
    "IsADC": false,
    "IsAddCalculate": false,
    "AttackFactor": 1.2,
    "HPFactor": -1
  },
  {
    "ID":10005,
    "Name": "蝶",
    "ItemType": 2,
    "Source": "兑换",
    "Price": 10,
    "Des": "基因",
    "ImgID": -1,
    "Duration": 3,
    "EffNumber": -1,
    "GeneType": 9,
    "GeneSizeType": 0,
    "Level": 1,
    "StrGeneNum": "等阶1",
    "GeneNum": 50,
    "IsADC": false,
    "IsAddCalculate": false,
    "AttackFactor": 0,
    "HPFactor": -1
  }
]