{
    "FileVersion": "1.5.2",
    "EnableAddressable": true,
    "LocationToLower": false,
    "IncludeAssetGUID": false,
    "OutputNameStyle": 1,
    "PackageName": "Main",
    "PackageVersion": "Simulate",
    "AssetList": [
        {
            "Address": "BeginDialog",
            "AssetPath": "Assets/Resources/UI/BeginDialog.prefab",
            "AssetGUID": "",
            "AssetTags": [],
            "BundleID": 0,
            "DependIDs": []
        },
        {
            "Address": "Canvas",
            "AssetPath": "Assets/Resources/UI/Canvas.prefab",
            "AssetGUID": "",
            "AssetTags": [],
            "BundleID": 0,
            "DependIDs": []
        },
        {
            "Address": "EventSystem",
            "AssetPath": "Assets/Resources/UI/EventSystem.prefab",
            "AssetGUID": "",
            "AssetTags": [],
            "BundleID": 0,
            "DependIDs": []
        },
        {
            "Address": "FloatText",
            "AssetPath": "Assets/Resources/UI/Common/FloatText.prefab",
            "AssetGUID": "",
            "AssetTags": [],
            "BundleID": 1,
            "DependIDs": []
        },
        {
            "Address": "HP",
            "AssetPath": "Assets/Resources/UI/Common/HP.prefab",
            "AssetGUID": "",
            "AssetTags": [],
            "BundleID": 1,
            "DependIDs": []
        },
        {
            "Address": "PickUpTip",
            "AssetPath": "Assets/Resources/UI/Common/PickUpTip.prefab",
            "AssetGUID": "",
            "AssetTags": [],
            "BundleID": 1,
            "DependIDs": []
        },
        {
            "Address": "BtnClose",
            "AssetPath": "Assets/Resources/UI/Common/UI/BtnClose.prefab",
            "AssetGUID": "",
            "AssetTags": [],
            "BundleID": 2,
            "DependIDs": []
        },
        {
            "Address": "BagDialog",
            "AssetPath": "Assets/Resources/UI/Dialog/Bag/BagDialog.prefab",
            "AssetGUID": "",
            "AssetTags": [],
            "BundleID": 3,
            "DependIDs": []
        },
        {
            "Address": "BagItem",
            "AssetPath": "Assets/Resources/UI/Dialog/Bag/BagItem.prefab",
            "AssetGUID": "",
            "AssetTags": [],
            "BundleID": 3,
            "DependIDs": []
        },
        {
            "Address": "WeaponBagUIManager",
            "AssetPath": "Assets/Resources/UI/Dialog/Bag/WeaponBagUIManager.prefab",
            "AssetGUID": "",
            "AssetTags": [],
            "BundleID": 3,
            "DependIDs": []
        },
        {
            "Address": "BuildCreateDialog",
            "AssetPath": "Assets/Resources/UI/Dialog/BuildCreate/BuildCreateDialog.prefab",
            "AssetGUID": "",
            "AssetTags": [],
            "BundleID": 4,
            "DependIDs": []
        },
        {
            "Address": "ComplexGoodsItem",
            "AssetPath": "Assets/Resources/UI/Dialog/BuildCreate/ComplexGoodsItem.prefab",
            "AssetGUID": "",
            "AssetTags": [],
            "BundleID": 4,
            "DependIDs": []
        },
        {
            "Address": "CreateItem",
            "AssetPath": "Assets/Resources/UI/Dialog/BuildCreate/CreateItem.prefab",
            "AssetGUID": "",
            "AssetTags": [],
            "BundleID": 4,
            "DependIDs": []
        },
        {
            "Address": "NeedMateralItem",
            "AssetPath": "Assets/Resources/UI/Dialog/BuildCreate/NeedMateralItem.prefab",
            "AssetGUID": "",
            "AssetTags": [],
            "BundleID": 4,
            "DependIDs": []
        },
        {
            "Address": "PlayerDialog",
            "AssetPath": "Assets/Resources/UI/Dialog/Player/PlayerDialog.prefab",
            "AssetGUID": "",
            "AssetTags": [],
            "BundleID": 5,
            "DependIDs": []
        },
        {
            "Address": "PlayerHPCom",
            "AssetPath": "Assets/Resources/UI/Dialog/Player/PlayerHPCom.prefab",
            "AssetGUID": "",
            "AssetTags": [],
            "BundleID": 5,
            "DependIDs": []
        },
        {
            "Address": "PlayerWeaponUI",
            "AssetPath": "Assets/Resources/UI/Dialog/Player/PlayerWeaponUI.prefab",
            "AssetGUID": "",
            "AssetTags": [],
            "BundleID": 5,
            "DependIDs": []
        },
        {
            "Address": "TipRDialog",
            "AssetPath": "Assets/Resources/UI/Tip/TipRDialog.prefab",
            "AssetGUID": "",
            "AssetTags": [],
            "BundleID": 6,
            "DependIDs": []
        },
        {
            "Address": "Data",
            "AssetPath": "Assets/Resources/Data/Data.json",
            "AssetGUID": "",
            "AssetTags": [],
            "BundleID": 7,
            "DependIDs": []
        },
        {
            "Address": "Drug",
            "AssetPath": "Assets/Texture/Atlas/Drug.spriteatlas",
            "AssetGUID": "",
            "AssetTags": [],
            "BundleID": 8,
            "DependIDs": []
        }
    ],
    "BundleList": [
        {
            "BundleName": "main_assets_resources_ui.bundle",
            "UnityCRC": 0,
            "FileHash": "00000000000000000000000000000000",
            "FileCRC": "00000000",
            "FileSize": 0,
            "IsRawFile": false,
            "LoadMethod": 0,
            "Tags": [],
            "ReferenceIDs": []
        },
        {
            "BundleName": "main_assets_resources_ui_common.bundle",
            "UnityCRC": 0,
            "FileHash": "00000000000000000000000000000000",
            "FileCRC": "00000000",
            "FileSize": 0,
            "IsRawFile": false,
            "LoadMethod": 0,
            "Tags": [],
            "ReferenceIDs": []
        },
        {
            "BundleName": "main_assets_resources_ui_common_ui.bundle",
            "UnityCRC": 0,
            "FileHash": "00000000000000000000000000000000",
            "FileCRC": "00000000",
            "FileSize": 0,
            "IsRawFile": false,
            "LoadMethod": 0,
            "Tags": [],
            "ReferenceIDs": []
        },
        {
            "BundleName": "main_assets_resources_ui_dialog_bag.bundle",
            "UnityCRC": 0,
            "FileHash": "00000000000000000000000000000000",
            "FileCRC": "00000000",
            "FileSize": 0,
            "IsRawFile": false,
            "LoadMethod": 0,
            "Tags": [],
            "ReferenceIDs": []
        },
        {
            "BundleName": "main_assets_resources_ui_dialog_buildcreate.bundle",
            "UnityCRC": 0,
            "FileHash": "00000000000000000000000000000000",
            "FileCRC": "00000000",
            "FileSize": 0,
            "IsRawFile": false,
            "LoadMethod": 0,
            "Tags": [],
            "ReferenceIDs": []
        },
        {
            "BundleName": "main_assets_resources_ui_dialog_player.bundle",
            "UnityCRC": 0,
            "FileHash": "00000000000000000000000000000000",
            "FileCRC": "00000000",
            "FileSize": 0,
            "IsRawFile": false,
            "LoadMethod": 0,
            "Tags": [],
            "ReferenceIDs": []
        },
        {
            "BundleName": "main_assets_resources_ui_tip.bundle",
            "UnityCRC": 0,
            "FileHash": "00000000000000000000000000000000",
            "FileCRC": "00000000",
            "FileSize": 0,
            "IsRawFile": false,
            "LoadMethod": 0,
            "Tags": [],
            "ReferenceIDs": []
        },
        {
            "BundleName": "main_assets_resources_data_data_json.rawfile",
            "UnityCRC": 0,
            "FileHash": "00000000000000000000000000000000",
            "FileCRC": "00000000",
            "FileSize": 0,
            "IsRawFile": true,
            "LoadMethod": 0,
            "Tags": [],
            "ReferenceIDs": []
        },
        {
            "BundleName": "main_assets_texture_atlas.bundle",
            "UnityCRC": 0,
            "FileHash": "00000000000000000000000000000000",
            "FileCRC": "00000000",
            "FileSize": 0,
            "IsRawFile": false,
            "LoadMethod": 0,
            "Tags": [],
            "ReferenceIDs": []
        }
    ]
}