%YAML 1.1
%TAG !u! tag:unity3d.com,2011:
--- !u!162 &1
EditorUserSettings:
  m_ObjectHideFlags: 0
  serializedVersion: 4
  m_ConfigSettings:
    RecentlyUsedSceneGuid-0:
      value: 0757075e03025e595408592616220d44424f4e782a7a7e3374791930e6b0366f
      flags: 0
    RecentlyUsedSceneGuid-1:
      value: 5a09045551575c58545c097316260d44104e1c282970766579714d60b0b0663d
      flags: 0
    RecentlyUsedSceneGuid-2:
      value: 54505703000c0f5e5a0b5f7713710c44104e4c7d7d2b23657c2b1f6ab6b83669
      flags: 0
    RecentlyUsedSceneGuid-3:
      value: 5308075607565d585a0f597314200e44124e407d797920647a2d4461e0b5646b
      flags: 0
    RecentlyUsedSceneGuid-4:
      value: 0008005403035d0b095e587444770844454f1d787c2a73312b7f1c64e3b06c3b
      flags: 0
    RecentlyUsedSceneGuid-5:
      value: 5b535703560d580e0f5e0a7747270d444f164a732a7f22647e7b4e32e6e66c68
      flags: 0
    RecentlyUsedSceneGuid-6:
      value: 5754570454530f085a57087a1426074413164172287120337d2d1c37b0b2603b
      flags: 0
    RecentlyUsedSceneGuid-7:
      value: 0108010200035f5e555d097049255d44424f1b7b2a2c23327c781f60b5b26d60
      flags: 0
    RecentlyUsedSceneGuid-8:
      value: 0750045256050d0c550b5c2641260d44174e4d7c297e73657d2b1f6ae4b9633d
      flags: 0
    RecentlyUsedSceneGuid-9:
      value: 5a5757560101590a5d0c0e24427b5d44434e4c7a7b7a23677f2b4565b7b5353a
      flags: 0
    UIBuilder.DisableMouseWheelZooming:
      value: 2550581500
      flags: 0
    UIBuilder.EditorExtensionModeKey:
      value: 2550581500
      flags: 0
    UnityRemoteDevice:
      value: 2d5e5a03
      flags: 0
    vcSharedLogLevel:
      value: 0d5e400f0650
      flags: 0
  m_VCAutomaticAdd: 1
  m_VCDebugCom: 0
  m_VCDebugCmd: 0
  m_VCDebugOut: 0
  m_SemanticMergeMode: 2
  m_DesiredImportWorkerCount: 5
  m_StandbyImportWorkerCount: 2
  m_IdleImportWorkerShutdownDelay: 60000
  m_VCShowFailedCheckout: 1
  m_VCOverwriteFailedCheckoutAssets: 1
  m_VCProjectOverlayIcons: 1
  m_VCHierarchyOverlayIcons: 1
  m_VCOtherOverlayIcons: 1
  m_VCAllowAsyncUpdate: 1
  m_ArtifactGarbageCollection: 1
